{
    "prepare_queue": {
        "installed": [],
        "uninstalled": []
    },
    "config_munge": {
        "files": {
            "res/xml/config.xml": {
                "parents": {
                    "/*": [
                        {
                            "xml": "<feature name=\"File\"><param name=\"android-package\" value=\"org.apache.cordova.file.FileUtils\" /><param name=\"onload\" value=\"true\" /></feature>",
                            "count": 1
                        },
                        {
                            "xml": "<feature name=\"FileTransfer\"><param name=\"android-package\" value=\"org.apache.cordova.filetransfer.FileTransfer\" /></feature>",
                            "count": 1
                        },
                        {
                            "xml": "<feature name=\"FileOpener\"><param name=\"android-package\" value=\"com.phonegap.plugins.fileopener.FileOpener\" /></feature>",
                            "count": 1
                        },
                        {
                            "xml": "<feature name=\"FileOpener2\"><param name=\"android-package\" value=\"io.github.pwlin.cordova.plugins.fileopener2.FileOpener2\" /></feature>",
                            "count": 1
                        },
                        {
                            "xml": "<feature name=\"PDialog\"><param name=\"android-package\" value=\"io.github.pwlin.cordova.plugins.pdialog.PDialog\" /></feature>",
                            "count": 1
                        },
                        {
                            "xml": "<feature name=\"Notification\"><param name=\"android-package\" value=\"org.apache.cordova.dialogs.Notification\" /></feature>",
                            "count": 1
                        },
                        {
                            "xml": "<feature name=\"YoikScreenOrientation\"><param name=\"android-package\" value=\"net.yoik.cordova.plugins.screenorientation.YoikScreenOrientation\" /></feature>",
                            "count": 1
                        }
                    ]
                }
            },
            "AndroidManifest.xml": {
                "parents": {
                    "/*": [
                        {
                            "xml": "<uses-permission android:name=\"android.permission.WRITE_EXTERNAL_STORAGE\" />",
                            "count": 2
                        },
                        {
                            "xml": "<uses-permission android:name=\"android.permission.READ_EXTERNAL_STORAGE\" />",
                            "count": 1
                        }
                    ]
                }
            }
        }
    },
    "installed_plugins": {
        "org.apache.cordova.file": {
            "PACKAGE_NAME": "idbp.dbp.my"
        },
        "org.apache.cordova.file-transfer": {
            "PACKAGE_NAME": "idbp.dbp.my"
        },
        "com.phonegap.plugins.fileopener": {
            "PACKAGE_NAME": "idbp.dbp.my"
        },
        "io.github.pwlin.cordova.plugins.fileopener2": {
            "PACKAGE_NAME": "idbp.dbp.my"
        },
        "io.github.pwlin.cordova.plugins.pdialog": {
            "PACKAGE_NAME": "idbp.dbp.my"
        },
        "org.apache.cordova.dialogs": {
            "PACKAGE_NAME": "idbp.dbp.my"
        },
        "cordova-plugin-screen-orientation": {
            "PACKAGE_NAME": "idbp.dbp.my"
        }
    },
    "dependent_plugins": {}
}